[
  {
    "url": "http://41.media.tumblr.com/ff9ad5a57dd2a6ce8badd706fcdf5bdc/tumblr_n741qpjd3j1ss467co1_500.png",
    "firstName": "Eddie",
    "lastName": "Hazel",
    "docType": "ARTIST",
    "birthdate": "1950-04-10T00:00:00-0300",
    "instrument": "guitar",
    "id": "0KoiSrVQShj8QEQx",
    "createdAt": "2017-04-10T16:30:16.837Z",
    "updatedAt": "2017-04-10T16:30:16.837Z"
  },
  {
    "url": "https://pbs.twimg.com/media/CoSb7U4XYAA8TaG.jpg",
    "firstName": "Mick",
    "lastName": "Jagger",
    "birthdate": "1943-07-26T00:00:00-0300",
    "instrument": "voice",
    "docType": "ARTIST",
    "id": "0uhLsOtMGdQ4GOu9",
    "bandId": "Gq4oaaeaKLQOsKaL",
    "createdAt": "2017-04-10T16:30:16.839Z",
    "updatedAt": "2017-04-10T16:30:16.839Z"
  },
  {
    "url": "http://www.premierguitar.com/ext/resources/images/content/2103_08/Videos/Rig-Rundowns/QOTSA/TVL_live_FEAT.jpg?1377712547",
    "birthdate": "1970-01-05T00:00:00-0300",
    "instrument": "guitar",
    "firstName": "Troy",
    "lastName": "Van Leeuwen",
    "docType": "ARTIST",
    "id": "1IhWZr1tMUovlRB4",
    "createdAt": "2017-04-10T16:30:16.837Z",
    "updatedAt": "2017-04-10T16:30:16.837Z"
  },
  {
    "url": "https://citizeninsane.eu/media/phil_0.jpg",
    "firstName": "Philip",
    "lastName": "Selway",
    "docType": "ARTIST",
    "birthdate": "1967-03-23T00:00:00-0300",
    "instrument": "drums",
    "id": "1Yh1xyhZJamzNSJf",
    "createdAt": "2017-04-10T16:30:16.838Z",
    "updatedAt": "2017-04-10T16:30:16.838Z"
  },
  {
    "url": "http://static.tumblr.com/6741800edc5bac8e1649df8b2901420d/a38zs7m/019mx47u2/tumblr_static_robert_plant02.jpg",
    "birthdate": "1948-08-20T00:00:00-0300",
    "instrument": "voice",
    "firstName": "Robert",
    "lastName": "Plant",
    "docType": "ARTIST",
    "id": "1gLzrpavEoPn3fBA",
    "bandId": "g9d8rmp0CvzmHrN6",
    "createdAt": "2017-04-10T16:30:16.836Z",
    "updatedAt": "2017-04-10T16:30:16.836Z"
  },
  {
    "url": "https://i.scdn.co/image/04151ab94c67250094da72217758aec6e464c639",
    "firstName": "Kirk",
    "lastName": "Hammett",
    "docType": "ARTIST",
    "birthdate": "1962-11-18T00:00:00-0300",
    "instrument": "guitar",
    "id": "278AmOqbY0Dp0fBr",
    "createdAt": "2017-04-10T16:30:16.836Z",
    "updatedAt": "2017-04-10T16:30:16.836Z"
  },
  {
    "url": "https://images-na.ssl-images-amazon.com/images/M/MV5BMTY5NzY4NzgxNV5BMl5BanBnXkFtZTcwMzcyOTQwOQ@@._V1_UY317_CR4,0,214,317_AL_.jpg",
    "birthdate": "1969-01-14T00:00:00-0300",
    "instrument": "drums",
    "firstName": "Dave",
    "lastName": "Grohl",
    "docType": "ARTIST",
    "id": "3z9TTBOS34UkSPFf",
    "createdAt": "2017-04-10T16:30:16.837Z",
    "updatedAt": "2017-04-10T16:30:16.837Z"
  },
  {
    "url": "https://i.scdn.co/image/c7c8c0ce06bf761aefdb43d36d1c2f86de51a728",
    "birthdate": "1963-08-03T00:00:00-0300",
    "instrument": "voice - guitar",
    "firstName": "James",
    "lastName": "Hetfield",
    "docType": "ARTIST",
    "id": "4lFYdvhAvxd3MNvS",
    "createdAt": "2017-04-10T16:30:16.836Z",
    "updatedAt": "2017-04-10T16:30:16.836Z"
  },
  {
    "url": "http://a4.files.biography.com/image/upload/c_fill,cs_srgb,dpr_1.0,g_face,h_300,q_80,w_300/MTIwNjA4NjM0MTI1Mzg3Mjc2.jpg",
    "birthdate": "1965-11-20T00:00:00-0300",
    "instrument": "drums",
    "firstName": "Michael 'Mike-d'",
    "lastName": "Diamond",
    "docType": "ARTIST",
    "id": "5dISlzrnYjcTjGTr",
    "createdAt": "2017-04-10T16:30:16.834Z",
    "updatedAt": "2017-04-10T16:30:16.834Z"
  },
  {
    "url": "http://65.media.tumblr.com/tumblr_m9cs2oiRci1qa1wxx.jpg",
    "firstName": "Colin",
    "lastName": "Greenwood",
    "docType": "ARTIST",
    "birthdate": "1969-06-26T00:00:00-0300",
    "instrument": "bass",
    "id": "5dNEMuYSAKajXpRa",
    "createdAt": "2017-04-10T16:30:16.838Z",
    "updatedAt": "2017-04-10T16:30:16.838Z"
  },
  {
    "url": "https://a1-images.myspacecdn.com/images03/32/af5788cabd3346e1baeb9e875e460876/300x300.jpg",
    "birthdate": "1968-10-07T00:00:00-0300",
    "instrument": "voice - guitar",
    "firstName": "Thom",
    "lastName": "Yorke",
    "docType": "ARTIST",
    "id": "65h1cLnDWSf8uZhj",
    "createdAt": "2017-04-10T16:30:16.838Z",
    "updatedAt": "2017-04-10T16:30:16.838Z"
  },
  {
    "url": "http://www.derrick-mckenzie.com/css/images/jampics/IMG_1027.JPG",
    "firstName": "Derrick",
    "lastName": "McKenzie",
    "docType": "ARTIST",
    "birthdate": "1964-03-27T00:00:00-0300",
    "instrument": "drums",
    "id": "6K3MRCosCtsk10wi",
    "createdAt": "2017-04-10T16:30:16.836Z",
    "updatedAt": "2017-04-10T16:30:16.836Z"
  },
  {
    "url": "http://musicplayers.com/blog/wp-content/uploads/2011/05/ChrisShiflett.jpg",
    "firstName": "Chris",
    "lastName": "Shiflett",
    "docType": "ARTIST",
    "birthdate": "1971-05-06T00:00:00-0300",
    "instrument": "guitar",
    "id": "6WnBWZEeDdpe6pHO",
    "createdAt": "2017-04-10T16:30:16.835Z",
    "updatedAt": "2017-04-10T16:30:16.835Z"
  },
  {
    "url": "https://upload.wikimedia.org/wikipedia/commons/thumb/a/a4/Jimmy_Chamberlin_Headshot.jpg/220px-Jimmy_Chamberlin_Headshot.jpg",
    "firstName": "Jimmy",
    "lastName": "Chamberlin",
    "birthdate": "1964-06-10T00:00:00-0300",
    "instrument": "drums",
    "docType": "ARTIST",
    "id": "7jM8L7XxaV3VyMit",
    "createdAt": "2017-04-10T16:30:16.839Z",
    "updatedAt": "2017-04-10T16:30:16.839Z"
  },
  {
    "url": "http://a5.files.biography.com/image/upload/c_fill,cs_srgb,dpr_1.0,g_face,h_300,q_80,w_300/MTE5NDg0MDU0ODI0MTkxNTAz.jpg",
    "birthdate": "1962-11-01T00:00:00-0300",
    "instrument": "voice",
    "firstName": "Anthony",
    "lastName": "Kiedis",
    "docType": "ARTIST",
    "id": "8SNmAnKd48lgyqaj",
    "createdAt": "2017-04-10T16:30:16.838Z",
    "updatedAt": "2017-04-10T16:30:16.838Z"
  },
  {
    "url": "https://i.scdn.co/image/96e2e59a1bf0b90cce97035ca48ad017cb9937c9",
    "firstName": "Paul",
    "lastName": "McCartney",
    "birthdate": "1942-06-18T00:00:00-0300",
    "instrument": "bass",
    "docType": "ARTIST",
    "id": "A16SkP5mW97doN30",
    "bandId": "zQ1LTSK1CUfGDWsY",
    "createdAt": "2017-04-10T16:30:16.838Z",
    "updatedAt": "2017-04-10T16:30:16.838Z"
  },
  {
    "url": "https://i.scdn.co/image/a171cadf89145d2e5b1941eb6ec8570700b9b0ea",
    "firstName": "Robert",
    "lastName": "Trujillo",
    "docType": "ARTIST",
    "birthdate": "1964-10-23T00:00:00-0300",
    "instrument": "bass",
    "id": "AkhO0x4Cwh0dNBhT",
    "createdAt": "2017-04-10T16:30:16.836Z",
    "updatedAt": "2017-04-10T16:30:16.836Z"
  },
  {
    "url": "http://a4.files.biography.com/image/upload/c_fit,cs_srgb,dpr_1.0,h_1200,q_80,w_1200/MTE5NTU2MzE2NDI5MTI1MTMx.jpg",
    "birthdate": "1967-02-20T00:00:00-0300",
    "instrument": "voice - guitar",
    "firstName": "Kurt",
    "lastName": "Cobain",
    "docType": "ARTIST",
    "id": "Ao1EjAPjqKA6EgBx",
    "createdAt": "2017-04-10T16:30:16.837Z",
    "updatedAt": "2017-04-10T16:30:16.837Z"
  },
  {
    "url": "http://www.uofmusic.com/wp-content/uploads/2016/07/stone-gossard-640-80.jpg",
    "firstName": "Jeff",
    "lastName": "Gossard",
    "docType": "ARTIST",
    "birthdate": "1966-07-20T00:00:00-0300",
    "instrument": "guitar",
    "id": "BYpbv3tVu7Dr3eU7",
    "createdAt": "2017-04-10T16:30:16.837Z",
    "updatedAt": "2017-04-10T16:30:16.837Z"
  },
  {
    "url": "http://data.whicdn.com/images/64191630/large.jpg",
    "firstName": "Josh",
    "lastName": "Klinghoffer",
    "docType": "ARTIST",
    "birthdate": "1979-10-03T00:00:00-0300",
    "instrument": "guitar",
    "id": "BhCn4xMHBERO6XS4",
    "createdAt": "2017-04-10T16:30:16.838Z",
    "updatedAt": "2017-04-10T16:30:16.838Z"
  },
  {
    "url": "http://is-a-cunt.com/wp-content/uploads/2016/06/62_damon-albarn.jpg",
    "birthdate": "1968-03-23T00:00:00-0300",
    "instrument": "guitar",
    "firstName": "Damon",
    "lastName": "Albarn",
    "docType": "ARTIST",
    "id": "BxjLG91ihczfq4Xd",
    "createdAt": "2017-04-10T16:30:16.835Z",
    "updatedAt": "2017-04-10T16:30:16.835Z"
  },
  {
    "url": "http://s3.amazonaws.com/media.wbur.org/wordpress/18/files/2015/04/picGordondirty-era_photo-by-tony-mott.jpg",
    "birthdate": "1953-04-28T00:00:00-0300",
    "instrument": "bass",
    "firstName": "Kim",
    "lastName": "Gordon",
    "docType": "ARTIST",
    "id": "Cnkbaobn0Q3BfCyE",
    "createdAt": "2017-04-10T16:30:16.838Z",
    "updatedAt": "2017-04-10T16:30:16.838Z"
  },
  {
    "url": "https://i.scdn.co/image/7363350720f890939156192d4dee6bb5877c0cc4",
    "birthdate": "1963-12-26T00:00:00-0300",
    "instrument": "drums",
    "firstName": "Lars",
    "lastName": "Ulrich",
    "docType": "ARTIST",
    "id": "DTP38sv7SBYTiJ7h",
    "createdAt": "2017-04-10T16:30:16.836Z",
    "updatedAt": "2017-04-10T16:30:16.836Z"
  },
  {
    "url": "http://www.diario24horas.com.br/imgs/artigos/2014/2015-01-29-geezer-butler.jpg",
    "firstName": "Geezer",
    "lastName": "Buttler",
    "docType": "ARTIST",
    "birthdate": "1949-07-17T00:00:00-0300",
    "instrument": "bass",
    "id": "Ei8uZw9Zaj7TqFly",
    "createdAt": "2017-04-10T16:30:16.835Z",
    "updatedAt": "2017-04-10T16:30:16.835Z"
  },
  {
    "url": "https://lh6.googleusercontent.com/-1HHBJzk4csQ/AAAAAAAAAAI/AAAAAAAABB0/t1ylK338WOg/photo.jpg",
    "birthdate": "1959-03-29T00:00:00-0300",
    "instrument": "voice",
    "firstName": "Perry",
    "lastName": "Farrel",
    "docType": "ARTIST",
    "id": "Eidj1IpyCFQTxoqP",
    "createdAt": "2017-04-10T16:30:16.836Z",
    "updatedAt": "2017-04-10T16:30:16.836Z"
  },
  {
    "url": "https://s-media-cache-ak0.pinimg.com/originals/73/90/94/7390940bb6207354d0fc2a9ade526a77.jpg",
    "firstName": "Nick",
    "lastName": "O'Malley",
    "docType": "ARTIST",
    "birthdate": "1985-07-05T00:00:00-0300",
    "instrument": "bass",
    "id": "HVmGpKZV8S4OpKCd",
    "createdAt": "2017-04-10T16:30:16.834Z",
    "updatedAt": "2017-04-10T16:30:16.834Z"
  },
  {
    "url": "https://upload.wikimedia.org/wikipedia/commons/thumb/6/66/Patsmear.jpg/220px-Patsmear.jpg",
    "firstName": "Pat",
    "lastName": "Smear",
    "docType": "ARTIST",
    "birthdate": "1959-08-05T00:00:00-0300",
    "instrument": "guitar",
    "id": "HkGOnRAe3IRRN4RZ",
    "createdAt": "2017-04-10T16:30:16.835Z",
    "updatedAt": "2017-04-10T16:30:16.835Z"
  },
  {
    "url": "http://cdn-x.drummerworld.com/drummerworld/jontheodore550.jpg",
    "firstName": "Jon",
    "lastName": "Theodore",
    "docType": "ARTIST",
    "birthdate": "1973-12-30T00:00:00-0300",
    "instrument": "drums",
    "id": "HsFt64H8mWNolCnJ",
    "createdAt": "2017-04-10T16:30:16.837Z",
    "updatedAt": "2017-04-10T16:30:16.837Z"
  },
  {
    "url": "http://www.alloutguitar.com/sites/default/files/robh_interview_04.jpg",
    "firstName": "Rob",
    "lastName": "Harris",
    "docType": "ARTIST",
    "birthdate": "1971-08-27T00:00:00-0300",
    "instrument": "guitar",
    "id": "I1wW82dHWZe9RtqK",
    "createdAt": "2017-04-10T16:30:16.836Z",
    "updatedAt": "2017-04-10T16:30:16.836Z"
  },
  {
    "url": "http://65.media.tumblr.com/c7e6905f9b3d21ae96f09b382f985795/tumblr_n03atbh8y11rij3jho2_400.jpg",
    "firstName": "John Paul",
    "lastName": "Jones",
    "docType": "ARTIST",
    "birthdate": "1946-01-03T00:00:00-0300",
    "instrument": "bass",
    "id": "KxbYalsDMKX2h0xz",
    "bandId": "g9d8rmp0CvzmHrN6",
    "createdAt": "2017-04-10T16:30:16.836Z",
    "updatedAt": "2017-04-10T16:30:16.836Z"
  },
  {
    "url": "http://images1.mtv.com/uri/mgid:uma:video:mtv.com:865500?width=657&height=370&crop=true&quality=0.85",
    "birthdate": "1951-10-26T00:00:00-0300",
    "instrument": "bass",
    "firstName": "Bootsy",
    "lastName": "Collins",
    "docType": "ARTIST",
    "id": "M5sBCM6gJlveOqXY",
    "createdAt": "2017-04-10T16:30:16.837Z",
    "updatedAt": "2017-04-10T16:30:16.837Z"
  },
  {
    "url": "http://blurtonline.com/wp-content/uploads/2015/01/Clinton.jpg",
    "birthdate": "1941-07-22T00:00:00-0300",
    "instrument": "voice",
    "firstName": "George",
    "lastName": "Clinton",
    "docType": "ARTIST",
    "id": "M6dW4vmfNACn9qLc",
    "createdAt": "2017-04-10T16:30:16.837Z",
    "updatedAt": "2017-04-10T16:30:16.837Z"
  },
  {
    "url": "https://consequenceofsound.files.wordpress.com/2011/01/matt-cameron-corbis-530-85.jpg",
    "firstName": "Matt",
    "lastName": "Cameron",
    "docType": "ARTIST",
    "birthdate": "1962-11-28T00:00:00-0300",
    "instrument": "drums",
    "id": "NLr8XDwe7UHuDcsg",
    "createdAt": "2017-04-10T16:30:16.837Z",
    "updatedAt": "2017-04-10T16:30:16.837Z"
  },
  {
    "url": "https://upload.wikimedia.org/wikipedia/commons/thumb/e/ec/Radiohead_2008_Barcelona,_Catalonia_Daydream_Festival.jpg/250px-Radiohead_2008_Barcelona,_Catalonia_Daydream_Festival.jpg",
    "birthdate": "1971-11-05T00:00:00-0300",
    "instrument": "guitar",
    "firstName": "Jonny",
    "lastName": "Greenwood",
    "docType": "ARTIST",
    "id": "Nt05DsVMvFsJoa5e",
    "createdAt": "2017-04-10T16:30:16.838Z",
    "updatedAt": "2017-04-10T16:30:16.838Z"
  },
  {
    "url": "http://tmhome.com/wp-content/uploads/2014/01/Josh-Homme-near-death-meditation-w2.jpg",
    "birthdate": "1973-05-17T00:00:00-0300",
    "instrument": "voice - guitar",
    "firstName": "Josh",
    "lastName": "Homme",
    "docType": "ARTIST",
    "id": "OEypjJyKBG5MSL2a",
    "createdAt": "2017-04-10T16:30:16.837Z",
    "updatedAt": "2017-04-10T16:30:16.837Z"
  },
  {
    "url": "https://s-media-cache-ak0.pinimg.com/originals/d3/d1/5e/d3d15e69daee90f0f41658db12843c49.jpg",
    "birthdate": "1985-07-08T00:00:00-0300",
    "instrument": "guitar",
    "firstName": "Jamie",
    "lastName": "Cook",
    "docType": "ARTIST",
    "id": "PCoyGasaXPLfOfNT",
    "createdAt": "2017-04-10T16:30:16.834Z",
    "updatedAt": "2017-04-10T16:30:16.834Z"
  },
  {
    "url": "http://www.aceshowbiz.com/images/wennpic/jeff-schroeder-premiere-the-smurfs-2-01.jpg",
    "firstName": "Jeff",
    "lastName": "Schroeder",
    "birthdate": "1974-02-04T00:00:00-0300",
    "instrument": "guitar",
    "docType": "ARTIST",
    "id": "QvYaPwMi0oEscDjT",
    "createdAt": "2017-04-10T16:30:16.839Z",
    "updatedAt": "2017-04-10T16:30:16.839Z"
  },
  {
    "url": "http://cdn4.pitchfork.com/news/62741/5f01093b.jpg",
    "firstName": "Billy",
    "lastName": "Corgan",
    "birthdate": "1967-03-17T00:00:00-0300",
    "instrument": "voice",
    "docType": "ARTIST",
    "id": "Qwgv0U1OmRAhCOJr",
    "createdAt": "2017-04-10T16:30:16.839Z",
    "updatedAt": "2017-04-10T16:30:16.839Z"
  },
  {
    "url": "http://a3.files.biography.com/image/upload/c_fill,cs_srgb,dpr_1.0,g_face,h_300,q_80,w_300/MTE4MDAzNDEwNzcyNTI2NjA2.jpg",
    "birthdate": "1964-12-23T00:00:00-0300",
    "instrument": "voice",
    "firstName": "Eddie",
    "lastName": "Vedder",
    "docType": "ARTIST",
    "id": "RDuFq2yHuVckAvJ8",
    "createdAt": "2017-04-10T16:30:16.837Z",
    "updatedAt": "2017-04-10T16:30:16.837Z"
  },
  {
    "url": "https://i38.servimg.com/u/f38/18/77/13/72/jk10.jpg",
    "birthdate": "1969-12-30T00:00:00-0300",
    "instrument": "voice",
    "firstName": "Jay",
    "lastName": "Kay",
    "docType": "ARTIST",
    "id": "SNTBT6fCBRFrFMYg",
    "createdAt": "2017-04-10T16:30:16.836Z",
    "updatedAt": "2017-04-10T16:30:16.836Z"
  },
  {
    "url": "http://www.chadleephotography.com/wp-content/gallery/rob-zombieblack-sabbath-drummer-tommy-clufetos/tommy-clufettos-chicago-2006-4848.JPG",
    "firstName": "Tommy",
    "lastName": "Cufletos",
    "docType": "ARTIST",
    "birthdate": "1979-12-30T00:00:00-0300",
    "instrument": "drums",
    "id": "SksKYl4FpW1YScnU",
    "createdAt": "2017-04-10T16:30:16.835Z",
    "updatedAt": "2017-04-10T16:30:16.835Z"
  },
  {
    "url": "https://images-na.ssl-images-amazon.com/images/M/MV5BMTkzNDc1MTg5M15BMl5BanBnXkFtZTcwMzk0ODY1NA@@._V1_UY317_CR11,0,214,317_AL_.jpg",
    "birthdate": "1965-05-17T00:00:00-0300",
    "instrument": "voice",
    "firstName": "Trent",
    "lastName": "Reznor",
    "docType": "ARTIST",
    "id": "Tlc6ZojuY5rHwF4w",
    "createdAt": "2017-04-10T16:30:16.836Z",
    "updatedAt": "2017-04-10T16:30:16.836Z"
  },
  {
    "url": "https://s-media-cache-ak0.pinimg.com/originals/09/fa/7f/09fa7f265ec74ad24372b12d079f0d9e.jpg",
    "birthdate": "1944-01-09T00:00:00-0300",
    "instrument": "guitar",
    "firstName": "Jimmy",
    "lastName": "Page",
    "docType": "ARTIST",
    "id": "UkWRaaM1VC25ofh6",
    "bandId": "g9d8rmp0CvzmHrN6",
    "createdAt": "2017-04-10T16:30:16.836Z",
    "updatedAt": "2017-04-10T16:30:16.836Z"
  },
  {
    "url": "https://i.scdn.co/image/47e00040660be1a06ce84821fcbe3fb68c658e1a",
    "firstName": "John",
    "lastName": "Lennon",
    "birthdate": "1940-10-09T00:00:00-0300",
    "instrument": "voice",
    "docType": "ARTIST",
    "id": "VauU2FUuhlYNzIjc",
    "bandId": "zQ1LTSK1CUfGDWsY",
    "createdAt": "2017-04-10T16:30:16.838Z",
    "updatedAt": "2017-04-10T16:30:16.838Z"
  },
  {
    "url": "http://www.rosebudus.com/watts/navi/top.jpg",
    "firstName": "Charlie",
    "lastName": "Watts",
    "birthdate": "1941-06-02T00:00:00-0300",
    "instrument": "drums",
    "docType": "ARTIST",
    "id": "YTxV0dCtQf50LP9F",
    "bandId": "Gq4oaaeaKLQOsKaL",
    "createdAt": "2017-04-10T16:30:16.839Z",
    "updatedAt": "2017-04-10T16:30:16.839Z"
  },
  {
    "url": "http://i3.mirror.co.uk/incoming/article5745883.ece/ALTERNATES/s615b/Tony-Lommi.jpg",
    "birthdate": "1948-02-19T00:00:00-0300",
    "instrument": "guitar",
    "firstName": "Tony",
    "lastName": "Iommi",
    "docType": "ARTIST",
    "id": "YteHCW9KAuAkM0X1",
    "createdAt": "2017-04-10T16:30:16.835Z",
    "updatedAt": "2017-04-10T16:30:16.835Z"
  },
  {
    "url": "https://upload.wikimedia.org/wikipedia/commons/thumb/5/56/Loz_horo.png/250px-Loz_horo.png",
    "birthdate": "1966-10-31T00:00:00-0300",
    "instrument": "guitar",
    "firstName": "Adam 'Ad-Rock'",
    "lastName": "Keefe Horovitz",
    "docType": "ARTIST",
    "id": "ZZ6ndwQuVWxrWyge",
    "createdAt": "2017-04-10T16:30:16.834Z",
    "updatedAt": "2017-04-10T16:30:16.834Z"
  },
  {
    "url": "https://images-na.ssl-images-amazon.com/images/M/MV5BMTY5NzY4NzgxNV5BMl5BanBnXkFtZTcwMzcyOTQwOQ@@._V1_UY317_CR4,0,214,317_AL_.jpg",
    "birthdate": "1969-01-14T00:00:00-0300",
    "instrument": "voice - guitar",
    "firstName": "Dave",
    "lastName": "Grohl",
    "docType": "ARTIST",
    "id": "Zd4HZ23GDVKN1KAm",
    "createdAt": "2017-04-10T16:30:16.835Z",
    "updatedAt": "2017-04-10T16:30:16.835Z"
  },
  {
    "url": "https://upload.wikimedia.org/wikipedia/commons/thumb/4/4c/John_Bonham_1975.jpg/220px-John_Bonham_1975.jpg",
    "firstName": "John",
    "lastName": "Bonham",
    "docType": "ARTIST",
    "birthdate": "1948-05-31T00:00:00-0300",
    "instrument": "drums",
    "id": "b5Dl038wi9U2U8aZ",
    "bandId": "g9d8rmp0CvzmHrN6",
    "createdAt": "2017-04-10T16:30:16.836Z",
    "updatedAt": "2017-04-10T16:30:16.836Z"
  },
  {
    "url": "https://pbs.twimg.com/profile_images/688366831783006208/0IBCN-Rr_400x400.jpg",
    "birthdate": "1969-06-07T00:00:00-0300",
    "instrument": "guitar",
    "firstName": "Dave",
    "lastName": "Navarro",
    "docType": "ARTIST",
    "id": "bC3q0C3kmkoACQt2",
    "createdAt": "2017-04-10T16:30:16.836Z",
    "updatedAt": "2017-04-10T16:30:16.836Z"
  },
  {
    "url": "http://www.radiopanik.org/media/cache/42/ee/42eebe06357375d14765c7b73638402c.jpg",
    "firstName": "Steve",
    "lastName": "Shelley",
    "docType": "ARTIST",
    "birthdate": "1962-06-23T00:00:00-0300",
    "instrument": "guitar",
    "id": "bKThOZDEqhdoEGV3",
    "createdAt": "2017-04-10T16:30:16.838Z",
    "updatedAt": "2017-04-10T16:30:16.838Z"
  },
  {
    "url": "https://upload.wikimedia.org/wikipedia/commons/thumb/8/8c/Justin_Meldal-Johnsen_Santa_Barbara,_California,_2009.jpg/220px-Justin_Meldal-Johnsen_Santa_Barbara,_California,_2009.jpg",
    "firstName": "Justin",
    "lastName": "Meldal-Johnsen",
    "docType": "ARTIST",
    "birthdate": "1942-06-18T00:00:00-0300",
    "instrument": "bass",
    "id": "dx6B45mz6HO0x5Gi",
    "createdAt": "2017-04-10T16:30:16.837Z",
    "updatedAt": "2017-04-10T16:30:16.837Z"
  },
  {
    "url": "http://www.twofeetthick.com/wp-content/uploads/2010/10/LeAnnSanDiego06-148-768x1024.jpg",
    "birthdate": "1966-04-05T00:00:00-0300",
    "instrument": "guitar",
    "firstName": "Mike",
    "lastName": "McCready",
    "docType": "ARTIST",
    "id": "fqoTjKYuphziudNa",
    "createdAt": "2017-04-10T16:30:16.837Z",
    "updatedAt": "2017-04-10T16:30:16.837Z"
  },
  {
    "url": "https://i.scdn.co/image/4d9990ce9e262cd5c0bfb1aef5ee4380d3f3dc66",
    "firstName": "George",
    "lastName": "Harrison",
    "birthdate": "1943-02-25T00:00:00-0300",
    "instrument": "guitar",
    "docType": "ARTIST",
    "id": "gTk2N4LOPB1lOE2P",
    "bandId": "zQ1LTSK1CUfGDWsY",
    "createdAt": "2017-04-10T16:30:16.838Z",
    "updatedAt": "2017-04-10T16:30:16.838Z"
  },
  {
    "url": "https://upload.wikimedia.org/wikipedia/commons/thumb/9/91/Nate_Mendel_2009.jpg/170px-Nate_Mendel_2009.jpg",
    "firstName": "Nate",
    "lastName": "Mendel",
    "docType": "ARTIST",
    "birthdate": "1968-12-02T00:00:00-0300",
    "instrument": "bass",
    "id": "hVaIiWX03Hfu8j6f",
    "createdAt": "2017-04-10T16:30:16.835Z",
    "updatedAt": "2017-04-10T16:30:16.835Z"
  },
  {
    "url": "http://assets.rollingstone.com/assets/images/story/q-a-flea-talks-the-chili-peppers-30th-birthday-and-his-50th-20120202/101513-flea-2-600-1381864295.jpg",
    "birthdate": "1962-10-16T00:00:00-0300",
    "instrument": "bass",
    "firstName": "Michael 'Flea'",
    "lastName": "Balzary",
    "docType": "ARTIST",
    "id": "hbkoQwI23gRhLfFJ",
    "createdAt": "2017-04-10T16:30:16.838Z",
    "updatedAt": "2017-04-10T16:30:16.838Z"
  },
  {
    "url": "http://www.billboard.com/files/styles/article_main_image/public/media/lee-ranaldo-sonic-youth-2007-billboard-650.jpg",
    "firstName": "Lee",
    "lastName": "Ranaldo",
    "docType": "ARTIST",
    "birthdate": "1956-02-03T00:00:00-0300",
    "instrument": "guitar",
    "id": "iFZVishlRnGP1MoK",
    "createdAt": "2017-04-10T16:30:16.838Z",
    "updatedAt": "2017-04-10T16:30:16.838Z"
  },
  {
    "url": "http://cdn.mos.musicradar.com/images/artist-news/janes-addiction/stephen-perkins-janes-opener-corbis-460-100-90-75.jpg",
    "firstName": "Stephen",
    "lastName": "Perkins",
    "docType": "ARTIST",
    "birthdate": "1967-09-13T00:00:00-0300",
    "instrument": "guitar",
    "id": "k705dd5xUirN2gdl",
    "createdAt": "2017-04-10T16:30:16.836Z",
    "updatedAt": "2017-04-10T16:30:16.836Z"
  },
  {
    "url": "http://thesuperslice.com/wp-content/uploads/2012/05/yauch-620x768.jpg",
    "birthdate": "1964-08-05T00:00:00-0300",
    "instrument": "bass",
    "firstName": "Adam",
    "lastName": "Yauch",
    "docType": "ARTIST",
    "id": "kBbIPUFITMjFOaiN",
    "createdAt": "2017-04-10T16:30:16.834Z",
    "updatedAt": "2017-04-10T16:30:16.834Z"
  },
  {
    "url": "https://lh4.googleusercontent.com/-Cgnqt5z6Xw0/AAAAAAAAAAI/AAAAAAAAAbY/yUOrcq_xidI/s0-c-k-no-ns/photo.jpg",
    "birthdate": "1948-12-03T00:00:00-0300",
    "instrument": "voice",
    "firstName": "Ozzy",
    "lastName": "Osbourne",
    "docType": "ARTIST",
    "id": "l7rXZL0tUQvM3mJF",
    "createdAt": "2017-04-10T16:30:16.835Z",
    "updatedAt": "2017-04-10T16:30:16.835Z"
  },
  {
    "url": "https://pbs.twimg.com/profile_images/378800000340701665/89bb248b3cdaa001df31e20a7e82d21c_400x400.jpeg",
    "birthdate": "1986-01-06T00:00:00-0300",
    "instrument": "voice - guitar",
    "firstName": "Alex",
    "lastName": "Turner",
    "docType": "ARTIST",
    "id": "ldBNbeMnltrExT5J",
    "createdAt": "2017-04-10T16:30:16.834Z",
    "updatedAt": "2017-04-10T16:30:16.834Z"
  },
  {
    "url": "http://data.whicdn.com/images/129835913/original.jpg",
    "birthdate": "1986-05-07T00:00:00-0300",
    "instrument": "drums",
    "firstName": "Matt",
    "lastName": "Helders",
    "docType": "ARTIST",
    "id": "mQkNqg6uzHpBjPKW",
    "createdAt": "2017-04-10T16:30:16.834Z",
    "updatedAt": "2017-04-10T16:30:16.834Z"
  },
  {
    "url": "https://i.scdn.co/image/33028dadc690dd2ceb3a01762a13e594f8e9d937",
    "firstName": "Ringo",
    "lastName": "Starr",
    "birthdate": "1940-07-07T00:00:00-0300",
    "instrument": "drums",
    "docType": "ARTIST",
    "id": "nvPfv7IYvEm2Wb7s",
    "bandId": "zQ1LTSK1CUfGDWsY",
    "createdAt": "2017-04-10T16:30:16.838Z",
    "updatedAt": "2017-04-10T16:30:16.838Z"
  },
  {
    "url": "http://static.spin.com/files/140213-Thurston-Moore-heavenmetal-video.jpg",
    "birthdate": "1958-07-25T00:00:00-0300",
    "instrument": "voice - guitar",
    "firstName": "Thurston",
    "lastName": "Moore",
    "docType": "ARTIST",
    "id": "qh0nJdaH4FYjrDOT",
    "createdAt": "2017-04-10T16:30:16.838Z",
    "updatedAt": "2017-04-10T16:30:16.838Z"
  },
  {
    "url": "http://cdn.images.express.co.uk/img/dynamic/79/590x/secondary/175492.jpg",
    "firstName": "Ronnie",
    "lastName": "Wood",
    "birthdate": "1947-06-01T00:00:00-0300",
    "instrument": "guitar",
    "docType": "ARTIST",
    "id": "rUizCSVdlpFEPi7K",
    "bandId": "Gq4oaaeaKLQOsKaL",
    "createdAt": "2017-04-10T16:30:16.839Z",
    "updatedAt": "2017-04-10T16:30:16.839Z"
  },
  {
    "url": "http://www.bottlerocknapavalley.com/wp-content/uploads/2016/04/tumblr_nmcjm6DbJr1s93nk0o2_1280.jpg",
    "birthdate": "1972-02-17T00:00:00-0300",
    "instrument": "drums",
    "firstName": "Taylor",
    "lastName": "Hawkins",
    "docType": "ARTIST",
    "id": "rXUE0cBIMySOYafV",
    "createdAt": "2017-04-10T16:30:16.835Z",
    "updatedAt": "2017-04-10T16:30:16.835Z"
  },
  {
    "url": "https://static1.squarespace.com/static/54481c8fe4b0a9431d5d27fe/t/565f73a1e4b0a69070fcd276/1449096098293/",
    "firstName": "Chris",
    "lastName": "Chaney",
    "docType": "ARTIST",
    "birthdate": "1970-06-14T00:00:00-0300",
    "instrument": "bass",
    "id": "sxFH5Eivd5FFxoqq",
    "createdAt": "2017-04-10T16:30:16.836Z",
    "updatedAt": "2017-04-10T16:30:16.836Z"
  },
  {
    "url": "http://cdn-x.drummerworld.com/pics/drum30/chadsmith66.jpg",
    "firstName": "Chad",
    "lastName": "Smith",
    "docType": "ARTIST",
    "birthdate": "1961-10-25T00:00:00-0300",
    "instrument": "drums",
    "id": "uKk0UTKVizZ95fqJ",
    "createdAt": "2017-04-10T16:30:16.838Z",
    "updatedAt": "2017-04-10T16:30:16.838Z"
  },
  {
    "url": "https://s-media-cache-ak0.pinimg.com/originals/b9/a7/16/b9a716d03231c0a410057551ddedc8b0.jpg",
    "firstName": "Michael",
    "lastName": "Shuman",
    "docType": "ARTIST",
    "birthdate": "1985-08-20T00:00:00-0300",
    "instrument": "bass",
    "id": "uwbBNwAUk9RxR1vX",
    "createdAt": "2017-04-10T16:30:16.837Z",
    "updatedAt": "2017-04-10T16:30:16.837Z"
  },
  {
    "url": "http://www.aguilaramp.com/gfx/FeaturedArtist_PaulTurner_main.jpg",
    "birthdate": "1968-13-11T00:00:00-0300",
    "instrument": "bass",
    "firstName": "Paul",
    "lastName": "Turner",
    "docType": "ARTIST",
    "id": "v12rLrrU5zQzGlTP",
    "createdAt": "2017-04-10T16:30:16.836Z",
    "updatedAt": "2017-04-10T16:30:16.836Z"
  },
  {
    "url": "https://upload.wikimedia.org/wikipedia/commons/thumb/f/f8/Jeff-Ament.jpg/220px-Jeff-Ament.jpg",
    "firstName": "Jeff",
    "lastName": "Ament",
    "docType": "ARTIST",
    "birthdate": "1963-03-10T00:00:00-0300",
    "instrument": "bass",
    "id": "vsqLYWq0Lq2YWGG6",
    "createdAt": "2017-04-10T16:30:16.837Z",
    "updatedAt": "2017-04-10T16:30:16.837Z"
  },
  {
    "url": "http://www.mojo4music.com/media/2015/07/Keef_mojocover-770.jpg",
    "firstName": "Keith",
    "lastName": "Richards",
    "birthdate": "1943-12-18T00:00:00-0300",
    "instrument": "guitar",
    "docType": "ARTIST",
    "id": "wAYJiRcWHLhSut2L",
    "bandId": "Gq4oaaeaKLQOsKaL",
    "createdAt": "2017-04-10T16:30:16.839Z",
    "updatedAt": "2017-04-10T16:30:16.839Z"
  },
  {
    "url": "https://s-media-cache-ak0.pinimg.com/236x/9d/b0/0f/9db00f7744ecedf160ed6431062152ed.jpg",
    "firstName": "Krist",
    "lastName": "Novoselic",
    "docType": "ARTIST",
    "birthdate": "1942-06-18T00:00:00-0300",
    "instrument": "bass",
    "id": "wmw1EAWU4OPKWjU7",
    "createdAt": "2017-04-10T16:30:16.837Z",
    "updatedAt": "2017-04-10T16:30:16.837Z"
  },
  {
    "url": "https://cdn.ustatik.com/_img/news/other/finck.jpg",
    "birthdate": "1971-11-07T00:00:00-0300",
    "instrument": "guitar",
    "firstName": "Robin",
    "lastName": "Finck",
    "docType": "ARTIST",
    "id": "yJuMHeCrsx2jiBGH",
    "createdAt": "2017-04-10T16:30:16.836Z",
    "updatedAt": "2017-04-10T16:30:16.836Z"
  }
]
